…
# xle file can be read

    Code
      res
    Output
      # A tibble: 677 x 4
         Time                `Level (m)` `Temperature (°C)` `Conductivity (µS/cm)`
         <dttm>                    <dbl>              <dbl>                  <dbl>
       1 2019-11-20 19:00:00        3.77                0.4                     59
       2 2019-11-21 01:00:00        3.76                0.4                     59
       3 2019-11-21 07:00:00        3.75                0.4                     58
       4 2019-11-21 13:00:00        3.76                0.4                     58
       5 2019-11-21 19:00:00        3.76                0.4                     58
       6 2019-11-22 01:00:00        3.74                0.4                     58
       7 2019-11-22 07:00:00        3.71                0.4                     58
       8 2019-11-22 13:00:00        3.65                0.4                     58
       9 2019-11-22 19:00:00        3.65                0.4                     58
      10 2019-11-23 01:00:00        3.65                0.4                     58
      # i 667 more rows
